{
  "main": {
    "id": "035e34cc53ea6352",
    "type": "split",
    "children": [
      {
        "id": "7161b1aa061ba18e",
        "type": "tabs",
        "children": [
          {
            "id": "0ac8bf4a0b7d7676",
            "type": "leaf",
            "state": {
              "type": "empty",
              "state": {}
            }
          },
          {
            "id": "1566fb3be8aeff28",
            "type": "leaf",
            "state": {
              "type": "markdown",
              "state": {
                "file": "WeirdCoreGame.md",
                "mode": "source",
                "source": false
              }
            }
          },
          {
            "id": "680635ef4600a1bd",
            "type": "leaf",
            "state": {
              "type": "markdown",
              "state": {
                "file": "WeirdCoreGame.md",
                "mode": "source",
                "source": false
              }
            }
          }
        ],
        "currentTab": 2
      }
    ],
    "direction": "vertical"
  },
  "left": {
    "id": "46faaf8ade26ea3c",
    "type": "split",
    "children": [
      {
        "id": "8138165ab94c69e5",
        "type": "tabs",
        "children": [
          {
            "id": "0575793e19e65cd7",
            "type": "leaf",
            "state": {
              "type": "file-explorer",
              "state": {
                "sortOrder": "alphabetical"
              }
            }
          },
          {
            "id": "cf5f6f18405fa896",
            "type": "leaf",
            "state": {
              "type": "search",
              "state": {
                "query": "",
                "matchingCase": false,
                "explainSearch": false,
                "collapseAll": false,
                "extraContext": false,
                "sortOrder": "alphabetical"
              }
            }
          },
          {
            "id": "5eae899fa116180c",
            "type": "leaf",
            "state": {
              "type": "bookmarks",
              "state": {}
            }
          }
        ]
      }
    ],
    "direction": "horizontal",
    "width": 300
  },
  "right": {
    "id": "f71d466a519774f4",
    "type": "split",
    "children": [
      {
        "id": "7883a09ffa594698",
        "type": "tabs",
        "children": [
          {
            "id": "2fe450aaf88543ae",
            "type": "leaf",
            "state": {
              "type": "backlink",
              "state": {
                "file": "WeirdCoreGame.md",
                "collapseAll": false,
                "extraContext": false,
                "sortOrder": "alphabetical",
                "showSearch": false,
                "searchQuery": "",
                "backlinkCollapsed": false,
                "unlinkedCollapsed": true
              }
            }
          },
          {
            "id": "c2a42fe67e279ada",
            "type": "leaf",
            "state": {
              "type": "outgoing-link",
              "state": {
                "file": "WeirdCoreGame.md",
                "linksCollapsed": false,
                "unlinkedCollapsed": true
              }
            }
          },
          {
            "id": "617b629e3f484a1c",
            "type": "leaf",
            "state": {
              "type": "tag",
              "state": {
                "sortOrder": "frequency",
                "useHierarchy": true
              }
            }
          },
          {
            "id": "e3d3c2ebb3c7f5fe",
            "type": "leaf",
            "state": {
              "type": "outline",
              "state": {
                "file": "WeirdCoreGame.md"
              }
            }
          }
        ]
      }
    ],
    "direction": "horizontal",
    "width": 300,
    "collapsed": true
  },
  "left-ribbon": {
    "hiddenItems": {
      "switcher:Open quick switcher": false,
      "graph:Open graph view": false,
      "canvas:Create new canvas": false,
      "daily-notes:Open today's daily note": false,
      "templates:Insert template": false,
      "command-palette:Open command palette": false
    }
  },
  "active": "680635ef4600a1bd",
  "lastOpenFiles": [
    "Obsidian Git Tutorial.md",
    "WeirdCoreGame.md"
  ]
}